[
	{
		"name": "Select Trail",
		"active": false
	},
	{
		"name": "Blue Mountain",
		"active": false,
		"center": [-76.04, 44.508],
		"zoom": 11
	},
	{
		"name": "Charleston Lake",
		"active": false,
		"center": [-76.04, 44.508],
		"zoom": 11
	},
	{
		"name": "Lemoine Point",
		"active": false,
		"center": [-76.61, 44.223],
		"zoom": 13
	},
	{
		"name": "Lyn Valley",
		"active": false,
		"center": [-75.75, 44.575],
		"zoom": 11
	},
	{
		"name": "Mac Johnson",
		"active": false,
		"center": [-75.75, 44.575],
		"zoom": 11
	},
	{
		"name": "Seeley\"s Bay",
		"active": false,
		"center": [-76.22, 44.485],
		"zoom": 11
	}
]
